CONTAINER dl_aov_group
{
	NAME dl_aov_group;
	INCLUDE Obase;

	GROUP AOV_GROUP_NAME
	{
		
		COLUMNS 2;
		AOVSCUSTOMTYPE DL_CUSTOM_COLORS
		{
			CUSTOMGUI AOVsCUSTOMGUI;
		}
	
		//STATICTEXT DL_COLOR_AOV {ANIM OFF;SCALE_H;}
		//BUTTON DL_ADD_COLOR_AOV {ANIM OFF;}
		//ROUP 	
		//{
			//COLUMNS 3;
			//BOOL  AOV_COLOR_CHEKC {ANIM OFF;}
			//STRING AOV_COLOR_STRING {ANIM OFF;}
			//COLOR  AOV_COLOR_COLOR {ANIM OFF;SCALE_H;}
		//}
		
		//STATICTEXT DL_FLOAT_AOV {ANIM OFF;SCALE_H;}
		//BUTTON DL_ADD_FLOAT_AOV {ANIM OFF;}
		
		//GROUP FLOAT_GROUP
		//{
			//COLUMNS 3;
			//BOOL  AOV_FLOAT_CHEKC {ANIM OFF;}
			//STRING AOV_FLOAT_STRING {ANIM OFF;}
			//REAL  AOV_FLOAT_VALUE {ANIM OFF; CUSTOMGUI REALSLIDER; SCALE_H;}
		//}
	}
	
	
}
