CONTAINER dl_color_variation
{
	NAME dl_color_variation;

	GROUP COLOR_VARIATION
	{
		SEPARATOR{LINE;}
		GROUP
		{
			COLUMNS 2;
				
			SEPARATOR SHADER_GROUP{}
			STATICTEXT{}
		
			COLOR INPUT_COLOR{SCALE_H;}
			SHADERLINK INPUT_COLOR_SHADER{ANIM OFF;HIDDEN;}
			SHADERLINK INPUT_COLOR_SHADER_TEMP{ANIM OFF;HIDDEN;}
			POPUP POPUP_INPUT_COLOR{SCALE_V;}
				
			STATICTEXT{}
			STATICTEXT{}
			SEPARATOR VARIATION{}
			STATICTEXT{}

			REAL VARIATION_HUE{SCALE_H;MIN 0; MINSLIDER 0; MAXSLIDER 1; STEP 0.001; CUSTOMGUI REALSLIDER;}
			SHADERLINK VARIATION_HUE_SHADER{ANIM OFF;HIDDEN;}
			SHADERLINK VARIATION_HUE_SHADER_TEMP{ANIM OFF;HIDDEN;}
			POPUP POPUP_VARIATION_HUE{SCALE_V;}
			
			REAL VARIATION_SATURATION{SCALE_H;MIN 0; MINSLIDER 0; MAXSLIDER 1; STEP 0.001; CUSTOMGUI REALSLIDER;}
			SHADERLINK VARIATION_SATURATION_SHADER{ANIM OFF;HIDDEN;}
			SHADERLINK VARIATION_SATURATION_SHADER_TEMP{ANIM OFF;HIDDEN;}
			POPUP POPUP_VARIATION_SATURATION{SCALE_V;}
			
			REAL VARIATION_BRIGHTNESS{SCALE_H;MIN 0; MINSLIDER 0; MAXSLIDER 1; STEP 0.001; CUSTOMGUI REALSLIDER;}
			SHADERLINK VARIATION_BRIGHTNESS_SHADER{ANIM OFF;HIDDEN;}
			SHADERLINK VARIATION_BRIGHTNESS_SHADER_TEMP{ANIM OFF;HIDDEN;}
			POPUP POPUP_VARIATION_BRIGHTNESS{SCALE_V;}
			
			
			STATICTEXT{}
			STATICTEXT{}
			SEPARATOR RANDOM{}
			STATICTEXT{}


			LONG RANDOMNESS_TYPE
			{
				ALIGN_LEFT;
				CYCLE
				{
					RANDOMNESS_UNIFORM;
					RANDOMNESS_NATUAL;
				}
			}
			SEPARATOR{}
			LONG SOURCE_TYPE
			{
				ALIGN_LEFT;
				CYCLE
				{
					SOURCE_TYPE_OBJECT;
					SOURCE_TYPE_MATERIAL;
				}
			}
			SEPARATOR{}

			LONG SEED{SCALE_H;}
			SEPARATOR{}
		
		}
		
	}
}