CONTAINER dl_color_correction
{
	NAME dl_color_correction;

	GROUP COLOR_CORRECTION
	{
		SEPARATOR{LINE;}
		
		GROUP
		{
			COLUMNS 2;	
		
			SEPARATOR SHADER_GROUP{SCALE_H;}
			STATICTEXT{}
					
			COLOR INPUT_COLOR{SCALE_H;}
			SHADERLINK INPUT_COLOR_SHADER{ANIM OFF;HIDDEN;}
			SHADERLINK INPUT_COLOR_SHADER_TEMP{ANIM OFF;HIDDEN;}
			POPUP POPUP_INPUT_COLOR{SCALE_V;}
			
			REAL INPUT_MASK{SCALE_H;MIN 0; MINSLIDER 0; MAXSLIDER 1; STEP 0.001; CUSTOMGUI REALSLIDER;}
			SHADERLINK INPUT_MASK_SHADER{ANIM OFF;HIDDEN;}
			SHADERLINK INPUT_MASK_SHADER_TEMP{ANIM OFF;HIDDEN;}
			POPUP POPUP_INPUT_MASK{SCALE_V;}

			STATICTEXT{}
			STATICTEXT{}
			SEPARATOR CORRECTION{SCALE_H;}
			STATICTEXT{}
			
			REAL CORRECTION_GAMMA{SCALE_H;MIN 0; MINSLIDER 0; MAXSLIDER 5; STEP 0.005; CUSTOMGUI REALSLIDER;}
			SHADERLINK CORRECTION_GAMMA_SHADER{ANIM OFF;HIDDEN;}
			SHADERLINK CORRECTION_GAMMA_SHADER_TEMP{ANIM OFF;HIDDEN;}
			POPUP POPUP_CORRECTION_GAMMA{SCALE_V;}
			
			REAL CORRECTION_HUE_SHIFT{SCALE_H;MIN 0; MINSLIDER 0; MAXSLIDER 1; STEP 0.001; CUSTOMGUI REALSLIDER;}
			SHADERLINK CORRECTION_HUE_SHIFT_SHADER{ANIM OFF;HIDDEN;}
			SHADERLINK CORRECTION_HUE_SHIFT_SHADER_TEMP{ANIM OFF;HIDDEN;}
			POPUP POPUP_CORRECTION_HUE_SHIFT{SCALE_V;}
			
			REAL CORRECTION_SATURATION{SCALE_H;MIN 0; MINSLIDER 0; MAXSLIDER 5; STEP 0.005; CUSTOMGUI REALSLIDER;}
			SHADERLINK CORRECTION_SATURATION_SHADER{ANIM OFF;HIDDEN;}	
			SHADERLINK CORRECTION_SATURATION_SHADER_TEMP{ANIM OFF;HIDDEN;}	
			POPUP POPUP_CORRECTION_SATURATION{SCALE_V;}
			
			REAL CORRECTION_VIBRANCE{SCALE_H;MIN 0; MINSLIDER 0; MAXSLIDER 5; STEP 0.005; CUSTOMGUI REALSLIDER;}
			SHADERLINK CORRECTION_VIBRANCE_SHADER{ANIM OFF;HIDDEN;}		
			SHADERLINK CORRECTION_VIBRANCE_SHADER_TEMP{ANIM OFF;HIDDEN;}		
			POPUP POPUP_CORRECTION_VIBRANCE{SCALE_V;}

			REAL CORRECTION_CONSTRAST{SCALE_H;MIN 0; MINSLIDER 0; MAXSLIDER 5; STEP 0.005; CUSTOMGUI REALSLIDER;}
			SHADERLINK CORRECTION_CONSTRAST_SHADER{ANIM OFF;HIDDEN;}		
			SHADERLINK CORRECTION_CONSTRAST_SHADER_TEMP{ANIM OFF;HIDDEN;}		
			POPUP POPUP_CORRECTION_CONSTRAST{SCALE_V;}

			REAL CORRECTION_CONSTRAST_PIVOT{SCALE_H;MIN 0; MINSLIDER 0; MAXSLIDER 1; STEP 0.001; CUSTOMGUI REALSLIDER;}
			SHADERLINK CORRECTION_CONSTRAST_PIVOT_SHADER{ANIM OFF;HIDDEN;}		
			SHADERLINK CORRECTION_CONSTRAST_PIVOT_SHADER_TEMP{ANIM OFF;HIDDEN;}					
			POPUP POPUP_CORRECTION_CONSTRAST_PIVOT{SCALE_V;}
			
			REAL CORRECTION_EXPOSURE{SCALE_H;MIN -10; MINSLIDER -10; MAXSLIDER 10; STEP 0.02; CUSTOMGUI REALSLIDER;}
			SHADERLINK CORRECTION_EXPOSURE_SHADER{ANIM OFF;HIDDEN;}	
			SHADERLINK CORRECTION_EXPOSURE_SHADER_TEMP{ANIM OFF;HIDDEN;}	
			POPUP POPUP_CORRECTION_EXPOSURE{SCALE_V;}

			COLOR CORRECTION_GAIN{SCALE_H;}
			SHADERLINK CORRECTION_GAIN_SHADER{ANIM OFF;HIDDEN;}
			SHADERLINK CORRECTION_GAIN_SHADER_TEMP{ANIM OFF;HIDDEN;}
			POPUP POPUP_CORRECTION_GAIN{SCALE_V;}
		
			COLOR CORRECTION_OFFSET{SCALE_H;}
			SHADERLINK CORRECTION_OFFSET_SHADER{ANIM OFF;HIDDEN;}
			SHADERLINK CORRECTION_OFFSET_SHADER_TEMP{ANIM OFF;HIDDEN;}
			POPUP POPUP_CORRECTION_OFFSET{SCALE_V;}
			BOOL CORRECTION_INVERT {}
		}
	}
}