CONTAINER dl_flakes
{
	NAME dl_flakes;

	GROUP SHADER_GROUP
	{
		SEPARATOR{LINE;}	
		GROUP
		{
			
			COLUMNS 2;
			SEPARATOR FLAKES_SHADER{SCALE_H;}
			STATICTEXT{}
			
			REAL FLAKES_DENSITY{SCALE_H;MIN 0; MINSLIDER 0; MAXSLIDER 1; STEP 0.01; CUSTOMGUI REALSLIDER;}
			SHADERLINK FLAKES_DENSITY_SHADER{ANIM OFF;HIDDEN;}
			SHADERLINK FLAKES_DENSITY_SHADER{ANIM OFF;HIDDEN;}
			POPUP POPUP_FLAKES_DENSITY{SCALE_V;}

			
			REAL FLAKES_SCALE{SCALE_H;MIN 0; MINSLIDER 0; MAXSLIDER 1; STEP 0.01; CUSTOMGUI REALSLIDER;}
			SHADERLINK FLAKES_SCALE_SHADER{ANIM OFF;HIDDEN;}
			SHADERLINK FLAKES_SCALE_SHADER{ANIM OFF;HIDDEN;}
			POPUP POPUP_FLAKES_SCALE{SCALE_V;}
			
			REAL FLAKES_RANDOMNESS{SCALE_H;MIN 0; MINSLIDER 0; MAXSLIDER 1; STEP 0.01; CUSTOMGUI REALSLIDER;}
			SHADERLINK FLAKES_RANDOMNESS_SHADER{ANIM OFF;HIDDEN;}
			SHADERLINK FLAKES_RANDOMNESS_SHADER{ANIM OFF;HIDDEN;}
			POPUP POPUP_FLAKES_RANDOMNESS{SCALE_V;}
			
			LONG FLAKES_LAYERS{MIN 1; MINSLIDER 1; MAXSLIDER 8; STEP 1; CUSTOMGUI LONGSLIDER;}			
		
		}
	}
}

