CONTAINER dl_layered
{
	NAME dl_layered;
	
	INCLUDE Mpreview;
	INCLUDE Mbase;
	
	GROUP Obaselist
	{
		BOOL LAYERED_PAGE { HIDDEN; PAGE; PARENTMSG LAYERED_GROUP; }
	}
	
	GROUP LAYERED_GROUP
	{
		SEPARATOR {LINE;}

		GROUP
		{
			COLUMNS 2;
			SEPARATOR TOP_LAYER{SCALE_H;}
			STATICTEXT{}
	
			LINK TOP_LAYER_LINK{SCALE_H;}
			SEPARATOR{}

			
			REAL TOP_LAYER_MASK{SCALE_H;}
			SHADERLINK TOP_LAYER_MASK_SHADER{SCALE_H;ANIM OFF;HIDDEN;}
			SHADERLINK TOP_LAYER_MASK_SHADER_TEMP{ANIM OFF;HIDDEN;}
			POPUP POPUP_TOP_LAYER_MASK{SCALE_V;}


			STATICTEXT{}
			STATICTEXT{}
			SEPARATOR MIDDLE_LAYER{}
			STATICTEXT{}
			
			LINK MIDDLE_LAYER_LINK{SCALE_H;}
			SEPARATOR{}
			
			REAL MIDDLE_LAYER_MASK{SCALE_H;}
			SHADERLINK MIDDLE_LAYER_MASK_SHADER{SCALE_H;ANIM OFF;HIDDEN;}
			SHADERLINK MIDDLE_LAYER_MASK_SHADER_TEMP{ANIM OFF;HIDDEN;}
			POPUP POPUP_MIDDLE_LAYER_MASK{SCALE_V;}
			
			
			STATICTEXT{}
			STATICTEXT{}
			SEPARATOR BOTTOM_LAYER{}
			STATICTEXT{}
			
			
			LINK BOTTOM_LAYER_LINK{SCALE_H;}
			SEPARATOR{}
			
			REAL BOTTOM_LAYER_MASK{SCALE_H;}
			SHADERLINK BOTTOM_LAYER_MASK_SHADER{SCALE_H;ANIM OFF;HIDDEN;}
			SHADERLINK BOTTOM_LAYER_MASK_SHADER_TEMP{ANIM OFF;HIDDEN;}
			POPUP POPUP_BOTTOM_LAYER_MASK{SCALE_V;}
			
		}
		
		STATICTEXT{}
		SEPARATOR AOV_PAGE{SCALE_H;}
		LINK DL_AOV_GROUP{SCALE_H;}
	}		
	INCLUDE Massign;

}