CONTAINER dl_metal
{
	NAME dl_metal;
	
	INCLUDE Mpreview;
	INCLUDE Mbase;
	
	GROUP Obaselist
	{
	
		BOOL METAL_MATERIAL_PAGE { HIDDEN; PAGE; PARENTMSG METAL_MATERIAL; }	
	}
	
	GROUP METAL_MATERIAL
	{
		SEPARATOR {LINE;}
		GROUP
		{
		
			COLUMNS 2;
			SEPARATOR COATING_LAYER{SCALE_H;}
			STATICTEXT{}
			
			REAL COATING_LAYER_THICKNESS{SCALE_H; MIN 0; MAX 1; MINSLIDER 0; MAXSLIDER 1; STEP 0.001; CUSTOMGUI REALSLIDER;}
			SHADERLINK COATING_LAYER_THICKNESS_SHADER{SCALE_H; ANIM OFF; HIDDEN;}
			SHADERLINK COATING_LAYER_THICKNESS_SHADER_TEMP{SCALE_H; ANIM OFF; HIDDEN;}
			POPUP POPUP_COATING_LAYER_THICKNESS{SCALE_V;}

			COLOR COATING_LAYER_COLOR{SCALE_H; }
			SHADERLINK COATING_LAYER_COLOR_SHADER{SCALE_H; ANIM OFF; HIDDEN;}
			SHADERLINK COATING_LAYER_COLOR_SHADER_TEMP{SCALE_H; ANIM OFF; HIDDEN;}
			POPUP POPUP_COATING_LAYER_COLOR{SCALE_V;}

			REAL COATING_LAYER_ROUGHNESS{SCALE_H; MIN 0; MAX 1; MINSLIDER 0; MAXSLIDER 1; STEP 0.001; CUSTOMGUI REALSLIDER;}
			SHADERLINK COATING_LAYER_ROUGHNESS_SHADER{SCALE_H; ANIM OFF; HIDDEN;}
			SHADERLINK COATING_LAYER_ROUGHNESS_SHADER_TEMP{SCALE_H; ANIM OFF; HIDDEN;}
			POPUP POPUP_COATING_LAYER_ROUGHNESS{SCALE_V;}
			
			REAL COATING_LAYER_SPECULAR_LEVEL{SCALE_H; MIN 0; MAX 1; MINSLIDER 0; MAXSLIDER 1; STEP 0.001; CUSTOMGUI REALSLIDER;}
			SHADERLINK COATING_LAYER_SPECULAR_LEVEL_SHADER{SCALE_H; ANIM OFF; HIDDEN;}
			SHADERLINK COATING_LAYER_SPECULAR_LEVEL_SHADER_TEMP{SCALE_H; ANIM OFF; HIDDEN;}
			POPUP POPUP_COATING_LAYER_SPECULAR_LEVEL{SCALE_V;}
			
			
			STATICTEXT{SCALE_H;}
			STATICTEXT{}
			SEPARATOR METAL_LAYER{SCALE_H;}
			STATICTEXT{}
			
			
			COLOR METAL_LAYER_COLOR{SCALE_H; }
			SHADERLINK METAL_LAYER_COLOR_SHADER{SCALE_H; ANIM OFF; HIDDEN;}
			SHADERLINK METAL_LAYER_COLOR_SHADER_TEMP{SCALE_H; ANIM OFF; HIDDEN;}
			POPUP POPUP_METAL_LAYER_COLOR{SCALE_V;}
			
			COLOR METAL_LAYER_EDGE_COLOR{SCALE_H; }
			SHADERLINK METAL_LAYER_EDGE_COLOR_SHADER{SCALE_H; ANIM OFF; HIDDEN;}
			SHADERLINK METAL_LAYER_EDGE_COLOR_SHADER_TEMP{SCALE_H; ANIM OFF; HIDDEN;}
			POPUP POPUP_METAL_LAYER_EDGE_COLOR{SCALE_V;}
			
			REAL METAL_LAYER_ROUGHNESS{SCALE_H; MIN 0; MAX 1; MINSLIDER 0; MAXSLIDER 1; STEP 0.001; CUSTOMGUI REALSLIDER;}
			SHADERLINK METAL_LAYER_ROUGHNESS_SHADER{SCALE_H; ANIM OFF; HIDDEN;}
			SHADERLINK METAL_LAYER_ROUGHNESS_SHADER_TEMP{SCALE_H; ANIM OFF; HIDDEN;}
			POPUP POPUP_METAL_LAYER_ROUGHNESS{SCALE_V;}

			REAL METAL_LAYER_ANISOTROPY{SCALE_H; MIN -1; MAX 1; MINSLIDER -1; MAXSLIDER 1; STEP 0.001; CUSTOMGUI REALSLIDER;}
			SHADERLINK METAL_LAYER_ANISOTROPY_SHADER{SCALE_H; ANIM OFF; HIDDEN;}
			SHADERLINK METAL_LAYER_ANISOTROPY_SHADER_TEMP{SCALE_H; ANIM OFF; HIDDEN;}
			POPUP POPUP_METAL_LAYER_ANISOTROPY{SCALE_V;}
			
			COLOR METAL_LAYER_ANISOTROPY_DIRECTION{SCALE_H; }
			SHADERLINK METAL_LAYER_ANISOTROPY_DIRECTION_SHADER{SCALE_H; ANIM OFF; HIDDEN;}
			SHADERLINK METAL_LAYER_ANISOTROPY_DIRECTION_SHADER_TEMP{SCALE_H; ANIM OFF; HIDDEN;}
			POPUP POPUP_METAL_LAYER_ANISOTROPY_DIRECTION{SCALE_V;}
			
			REAL METAL_LAYER_OPACITY{SCALE_H; MIN 0; MAX 1; MINSLIDER 0; MAXSLIDER 1; STEP 0.001; CUSTOMGUI REALSLIDER;}
			SHADERLINK METAL_LAYER_OPACITY_SHADER{ANIM OFF;SCALE_H; HIDDEN;}
			SHADERLINK METAL_LAYER_OPACITY_SHADER_TEMP{ANIM OFF;SCALE_H; HIDDEN;}
			POPUP POPUP_METAL_LAYER_OPACITY{SCALE_V;}
			
			BOOL METAL_LAYER_TEMPERED_METAL{}
			SEPARATOR{}
				
			REAL METAL_LAYER_OXIDE_THICKNESS{SCALE_H; MIN 0; MAX 100; MINSLIDER 0; MAXSLIDER 100; STEP 0.001; CUSTOMGUI REALSLIDER;}
			SHADERLINK METAL_LAYER_OXIDE_THICKNESS_SHADER{SCALE_H; ANIM OFF; HIDDEN;}
			SHADERLINK METAL_LAYER_OXIDE_THICKNESS_SHADER_TEMP{SCALE_H; ANIM OFF; HIDDEN;}
			POPUP POPUP_METAL_LAYER_OXIDE_THICKNESS{SCALE_V;}
			
			REAL METAL_LAYER_OXIDE_IOR{SCALE_H; MIN 0; MAX 100; MINSLIDER 0; MAXSLIDER 100; STEP 0.001; CUSTOMGUI REALSLIDER;}
			SHADERLINK METAL_LAYER_OXIDE_IOR_SHADER{SCALE_H; ANIM OFF; HIDDEN;}
			SHADERLINK METAL_LAYER_OXIDE_IOR_SHADER_TEMP{SCALE_H; ANIM OFF; HIDDEN;}
			POPUP POPUP_METAL_LAYER_OXIDE_IOR{SCALE_V;}
			
			
			STATICTEXT{SCALE_H;}
			STATICTEXT{}
			SEPARATOR BUMP{SCALE_H;}
			STATICTEXT{}
			
			
			LONG BUMP_TYPE
			{
				CYCLE
				{
					BUMP_MAP;
					NORMAL_MAP_DIRECTX;
					NORMAL_MAP_OPENGL;
					DISPLACEMENT_0;
					DISPLACEMENT_5;
				}
			}
			SEPARATOR{}
			
			SHADERLINK BUMP_VALUE{ANIM OFF;}
			SEPARATOR{}
			
			REAL BUMP_INTENSITY{MINSLIDER 0; MAXSLIDER 10; CUSTOMGUI REALSLIDER;}
			SEPARATOR{}

			LONG BUMP_LAYERS_AFFECTED
			{
				CYCLE
				{
					AFFECT_BOTH_LAYERS;
					AFFECT_COATING_LAYER;
					AFFECT_BASE_LAYER;
				}
			}
		}
		STATICTEXT{}
		SEPARATOR AOV_PAGE{SCALE_H;}
		LINK DL_AOV_GROUP{SCALE_H;}
	}
	

	INCLUDE Massign;

}