CONTAINER dl_ramp
{
	NAME dl_ramp;

	GROUP SHADER_GROUP
	{	
		COLUMNS 2;

		LONG RAMP_MODE
		{
			SCALE_H;
			CYCLE
			{
				RAMP_MODE_HORIZONTAL;
				RAMP_MODE_VERTICAL;
				RAMP_MODE_DIAGONAL;
				RAMP_MODE_RADIAL;
				RAMP_MODE_CIRCULAR;
				RAMP_MODE_BOX;
				RAMP_MODE_RANDOM_COLOR;
			}
		}
		SEPARATOR{}
		
		GRADIENT COLOR_RAMP_GRADIENT {COLOR; SCALE_H;}
		SEPARATOR{}
		
		LONG RAMP_COLOR_MIX
		{
			SCALE_H;
			CYCLE
			{
				RAMP_COLOR_MIX_RGB;
				RAMP_COLOR_MIX_HSV;
			}
		}
		SEPARATOR{}

		GROUP
		{	
			COLUMNS 2;
			STATICTEXT{}
			STATICTEXT{}
			SEPARATOR RAMP_TRANSFORM_GROUP{}
			STATICTEXT{}	
		}
		
		
		REAL RAMP_TRANSFORM_REPEAT{SCALE_H;MIN 0; MINSLIDER 0; MAXSLIDER 1; STEP 0.01; CUSTOMGUI REALSLIDER;}
		SHADERLINK RAMP_TRANSFORM_REPEAT_SHADER{ANIM OFF;HIDDEN;}
		SHADERLINK RAMP_TRANSFORM_REPEAT_SHADER_TEMP{ANIM OFF;HIDDEN;}
		POPUP POPUP_RAMP_TRANSFORM_REPEAT{SCALE_V;}

		REAL RAMP_TRANSFORM_OFFSET{SCALE_H;MIN 0;MINSLIDER 0; MAXSLIDER 1; STEP 0.01; CUSTOMGUI REALSLIDER;}
		SHADERLINK RAMP_TRANSFORM_OFFSET_SHADER{ANIM OFF;HIDDEN;}
		SHADERLINK RAMP_TRANSFORM_OFFSET_SHADER_TEMP{ANIM OFF;HIDDEN;}
		POPUP POPUP_RAMP_TRANSFORM_OFFSET{SCALE_V;}
		
		BOOL RAMP_TRANSFORM_REVERSE{}


		GROUP
		{	
			COLUMNS 2;
			STATICTEXT{}
			STATICTEXT{}
			SEPARATOR RAMP_DISTORTION_GROUP{}
			STATICTEXT{}	
		}
		
			
		REAL RAMP_DISTORTION_INTENSITY{SCALE_H;MIN 0;MINSLIDER 0; MAXSLIDER 1; STEP 0.01; CUSTOMGUI REALSLIDER;}
		SHADERLINK RAMP_DISTORTION_INTENSITY_SHADER{ANIM OFF;HIDDEN;}
		SHADERLINK RAMP_DISTORTION_INTENSITY_SHADER_TEMP{ANIM OFF;HIDDEN;}
		POPUP POPUP_RAMP_DISTORTION_INTENSITY{SCALE_V;}
		
		SHADERLINK RAMP_DISTORTION_SHADER{ANIM OFF;}


		GROUP
		{	
			COLUMNS 2;
			STATICTEXT{}
			STATICTEXT{}
			SEPARATOR RAMP_NOISE_GROUP{}
			STATICTEXT{}	
		}
		
		REAL RAMP_NOISE_INTENSITY{SCALE_H;MIN 0; MINSLIDER 0; MAXSLIDER 10; STEP 0.1; CUSTOMGUI REALSLIDER;}
		SHADERLINK RAMP_NOISE_INTENSITY_SHADER{ANIM OFF;HIDDEN;}
		SHADERLINK RAMP_NOISE_INTENSITY_SHADER_TEMP{ANIM OFF;HIDDEN;}
		POPUP POPUP_RAMP_NOISE_INTENSITY{SCALE_V;}
		
		REAL RAMP_NOISE_HUE{SCALE_H;MIN 0; MINSLIDER 0; MAXSLIDER 10; STEP 0.1; CUSTOMGUI REALSLIDER;}
		SHADERLINK RAMP_NOISE_HUE_SHADER{ANIM OFF;HIDDEN;}
		SHADERLINK RAMP_NOISE_HUE_SHADER_TEMP{ANIM OFF;HIDDEN;}
		POPUP POPUP_RAMP_NOISE_HUE{SCALE_V;}
		
		REAL RAMP_NOISE_SATURATION{SCALE_H;MIN 0; MINSLIDER 0; MAXSLIDER 10; STEP 0.1; CUSTOMGUI REALSLIDER;}
		SHADERLINK RAMP_NOISE_SATURATION_SHADER{ANIM OFF;HIDDEN;}
		SHADERLINK RAMP_NOISE_SATURATION_SHADER_TEMP{ANIM OFF;HIDDEN;}
		POPUP POPUP_RAMP_NOISE_SATURATION{SCALE_V;}
		
		REAL RAMP_NOISE_VALUE{SCALE_H;MIN 0; MINSLIDER 0; MAXSLIDER 10; STEP 0.1; CUSTOMGUI REALSLIDER;}
		SHADERLINK RAMP_NOISE_VALUE_SHADER{ANIM OFF;HIDDEN;}
		SHADERLINK RAMP_NOISE_VALUE_SHADER_TEMP{ANIM OFF;HIDDEN;}
		POPUP POPUP_RAMP_NOISE_VALUE{SCALE_V;}
		

		GROUP
		{	
			COLUMNS 2;
			STATICTEXT{}
			STATICTEXT{}
			SEPARATOR RAMP_NOISE_TRANSFORM_GROUP{}
			STATICTEXT{}	
		}
		
		REAL RAMP_NOISE_TRANSFORM_SCALE{SCALE_H;MIN 0; MINSLIDER 0; MAXSLIDER 10; STEP 0.1; CUSTOMGUI REALSLIDER;}
		SHADERLINK RAMP_NOISE_TRANSFORM_SCALE_SHADER{ANIM OFF;HIDDEN;}
		SHADERLINK RAMP_NOISE_TRANSFORM_SCALE_SHADER_TEMP{ANIM OFF;HIDDEN;}
		POPUP POPUP_RAMP_NOISE_TRANSFORM_SCALE{SCALE_V;}
		
		REAL RAMP_NOISE_TRANSFORM_OFFSET{SCALE_H;MIN 0; MINSLIDER 0; MAXSLIDER 10; STEP 0.1; CUSTOMGUI REALSLIDER;}
		SHADERLINK RAMP_NOISE_TRANSFORM_OFFSET_SHADER{ANIM OFF;HIDDEN;}
		SHADERLINK RAMP_NOISE_TRANSFORM_OFFSET_SHADER_TEMP{ANIM OFF;HIDDEN;}
		POPUP POPUP_RAMP_NOISE_TRANSFORM_OFFSET{SCALE_V;}
		
		REAL RAMP_NOISE_TRANSFORM_STEPPING{SCALE_H;MIN 0; MINSLIDER 0; MAXSLIDER 10; STEP 0.1; CUSTOMGUI REALSLIDER;}
		SHADERLINK RAMP_NOISE_TRANSFORM_STEPPING_SHADER{ANIM OFF;HIDDEN;}
		SHADERLINK RAMP_NOISE_TRANSFORM_STEPPING_SHADER_TEMP{ANIM OFF;HIDDEN;}
		POPUP POPUP_RAMP_NOISE_TRANSFORM_STEPPING{SCALE_V;}
		
		REAL RAMP_NOISE_TRANSFORM_TIME{SCALE_H;MIN 0; MINSLIDER 0; MAXSLIDER 10; STEP 0.1; CUSTOMGUI REALSLIDER;}
		SHADERLINK RAMP_NOISE_TRANSFORM_TIME_SHADER{ANIM OFF;HIDDEN;}
		SHADERLINK RAMP_NOISE_TRANSFORM_TIME_SHADER_TEMP{ANIM OFF;HIDDEN;}
		POPUP POPUP_RAMP_NOISE_TRANSFORM_TIME{SCALE_V;}
		
		
		
		GROUP
		{	
			COLUMNS 2;
			STATICTEXT{}
			STATICTEXT{}
			SEPARATOR RAMP_NOISE_LAYERS_GROUP{}
			STATICTEXT{}	
		}
		
		LONG RAMP_NOISE_LAYERS_LAYER{SCALE_H;MIN 1;}
		STATICTEXT{}
			
		REAL RAMP_NOISE_LAYERS_PERSISTENCE{SCALE_H;MIN 0; MINSLIDER 0; MAXSLIDER 10; STEP 0.1; CUSTOMGUI REALSLIDER;}
		SHADERLINK RAMP_NOISE_LAYERS_PERSISTENCE_SHADER{ANIM OFF;HIDDEN;}
		SHADERLINK RAMP_NOISE_LAYERS_PERSISTENCE_SHADER_TEMP{ANIM OFF;HIDDEN;}
		POPUP POPUP_RAMP_NOISE_LAYERS_PERSISTENCE{SCALE_V;}
		
		REAL RAMP_NOISE_LAYERS_SCALE{SCALE_H;MIN 0; MINSLIDER 0; MAXSLIDER 10; STEP 0.1; CUSTOMGUI REALSLIDER;}
		SHADERLINK RAMP_NOISE_LAYERS_SCALE_SHADER{ANIM OFF;HIDDEN;}
		SHADERLINK RAMP_NOISE_LAYERS_SCALE_SHADER_TEMP{ANIM OFF;HIDDEN;}
		POPUP POPUP_RAMP_NOISE_LAYERS_SCALE{SCALE_V;}
		
		
		
		GROUP
		{	
			COLUMNS 2;
			STATICTEXT{}
			STATICTEXT{}
			SEPARATOR RAMP_ADJUST_GROUP{}
			STATICTEXT{}	
		}
		
			
		BOOL RAMP_ADJUST_INVERT{SCALE_H;}
		STATICTEXT{}	

		COLOR RAMP_ADJUST_COLOR_GAIN{SCALE_H;}
		SHADERLINK RAMP_ADJUST_COLOR_GAIN_SHADER{ANIM OFF;HIDDEN;}
		SHADERLINK RAMP_ADJUST_COLOR_GAIN_SHADER_TEMP{ANIM OFF;HIDDEN;}
		POPUP POPUP_RAMP_ADJUST_COLOR_GAIN{SCALE_V;}
		
		COLOR RAMP_ADJUST_COLOR_OFFSET{SCALE_H;}
		SHADERLINK RAMP_ADJUST_COLOR_OFFSET_SHADER{ANIM OFF;HIDDEN;}
		SHADERLINK RAMP_ADJUST_COLOR_OFFSET_SHADER_TEMP{ANIM OFF;HIDDEN;}
		POPUP POPUP_RAMP_ADJUST_COLOR_OFFSET{SCALE_V;}
		
		REAL RAMP_ADJUST_ALPHA_GAIN{SCALE_H;MIN 0; MINSLIDER 0; MAXSLIDER 10; STEP 0.1; CUSTOMGUI REALSLIDER;}
		SHADERLINK RAMP_ADJUST_ALPHA_GAIN_SHADER{ANIM OFF;HIDDEN;}
		SHADERLINK RAMP_ADJUST_ALPHA_GAIN_SHADER_TEMP{ANIM OFF;HIDDEN;}
		POPUP POPUP_RAMP_ADJUST_ALPHA_GAIN{SCALE_V;}
		
		REAL RAMP_ADJUST_ALPHA_OFFSET{SCALE_H;MIN 0; MINSLIDER 0; MAXSLIDER 10; STEP 0.1; CUSTOMGUI REALSLIDER;}
		SHADERLINK RAMP_ADJUST_ALPHA_OFFSET_SHADER{ANIM OFF;HIDDEN;}
		SHADERLINK RAMP_ADJUST_ALPHA_OFFSET_SHADER_TEMP{ANIM OFF;HIDDEN;}
		POPUP POPUP_RAMP_ADJUST_ALPHA_OFFSET{SCALE_V;}
		
		
		
	}
}

