CONTAINER dl_skin	
{
	NAME dl_skin;
	
	INCLUDE Mpreview;
	INCLUDE Mbase;
	
	GROUP Obaselist
	{
		BOOL SKIN_PAGE { HIDDEN; PAGE; PARENTMSG SKIN_GROUP; }
	}
	
	GROUP SKIN_GROUP
	{
		SEPARATOR {LINE;}

		GROUP
		{
			COLUMNS 2;
			SEPARATOR SKIN{SCALE_H;}
			STATICTEXT{}
	
			COLOR SKIN_COLOR{SCALE_H;}
			SHADERLINK SKIN_COLOR_SHADER{SCALE_H;ANIM OFF;HIDDEN;}
			SHADERLINK SKIN_COLOR_SHADER_TEMP{ANIM OFF;HIDDEN;}
			POPUP POPUP_SKIN_COLOR{SCALE_V;}

			REAL SKIN_ROUGHNESS{SCALE_H;MIN 0; MAX 1; MINSLIDER 0; MAXSLIDER 1; STEP 0.001; CUSTOMGUI REALSLIDER;}
			SHADERLINK SKIN_ROUGHNESS_SHADER{SCALE_H;ANIM OFF;HIDDEN;}
			SHADERLINK SKIN_ROUGHNESS_SHADER_TEMP{ANIM OFF;HIDDEN;}
			POPUP POPUP_SKIN_ROUGHNESS{SCALE_V;}
			
			REAL SKIN_SPECULAR_LEVEL{SCALE_H;MIN 0; MINSLIDER 0; MAXSLIDER 100; STEP 0.001; CUSTOMGUI REALSLIDER;}
			SHADERLINK SKIN_SPECULAR_LEVEL_SHADER{SCALE_H;ANIM OFF;HIDDEN;}		
			SHADERLINK SKIN_SPECULAR_LEVEL_SHADER_TEMP{ANIM OFF;HIDDEN;}		
			POPUP POPUP_SKIN_SPECULAR_LEVEL{SCALE_V;}
			
			STATICTEXT{}
			STATICTEXT{}
			SEPARATOR SUBSURFACE{}
			STATICTEXT{}
		
			COLOR SUBSURFACE_COLOR{SCALE_H;}
			SHADERLINK SUBSURFACE_COLOR_SHADER{SCALE_H;ANIM OFF;HIDDEN;}
			SHADERLINK SUBSURFACE_COLOR_SHADER_TEMP{ANIM OFF;HIDDEN;}
			POPUP POPUP_SUBSURFACE_COLOR{SCALE_V;}

			REAL SUBSURFACE_SCALE{SCALE_H;MIN 0; MINSLIDER 0; MAXSLIDER 100; STEP 0.1; CUSTOMGUI REALSLIDER;}
			SHADERLINK SUBSURFACE_SCALE_SHADER{SCALE_H;ANIM OFF;HIDDEN;}
			SHADERLINK SUBSURFACE_SCALE_SHADER_TEMP{ANIM OFF;HIDDEN;}
			POPUP POPUP_SUBSURFACE_SCALE{SCALE_V;}

			REAL SUBSURFACE_IOR{SCALE_H;MIN 1; MINSLIDER 1; MAXSLIDER 5; STEP 0.01; CUSTOMGUI REALSLIDER;}
			SHADERLINK SUBSURFACE_IOR_SHADER{SCALE_H;ANIM OFF;HIDDEN;}
			SHADERLINK SUBSURFACE_IOR_SHADER_TEMP{ANIM OFF;HIDDEN;}
			POPUP POPUP_SUBSURFACE_IOR{SCALE_V;}
		
			REAL SUBSURFACE_ANISOTROPY{SCALE_H;MIN -1; MAX 1; MINSLIDER -1; MAXSLIDER 1; STEP 0.001; CUSTOMGUI REALSLIDER;}
			SHADERLINK SUBSURFACE_ANISOTROPY_SHADER{SCALE_H;ANIM OFF;HIDDEN;}
			SHADERLINK SUBSURFACE_ANISOTROPY_SHADER_TEMP{ANIM OFF;HIDDEN;}
			POPUP POPUP_SUBSURFACE_ANISOTROPY{SCALE_V;}
			
			STATICTEXT{SCALE_H;}
			STATICTEXT{}
			SEPARATOR BUMP{SCALE_H;}
			STATICTEXT{}

			LONG BUMP_TYPE
			{
				CYCLE
				{
					BUMP_MAP;
					NORMAL_MAP_DIRECTX;
					NORMAL_MAP_OPENGL;
					DISPLACEMENT_0;
					DISPLACEMENT_5;
				}
			}
			SEPARATOR{}
			
			SHADERLINK BUMP_VALUE{ANIM OFF;}
			SEPARATOR{}

			SEPARATOR { LINE; }
			SEPARATOR{}
			
			REAL BUMP_INTENSITY{MINSLIDER 0; MAXSLIDER 10; CUSTOMGUI REALSLIDER;}
		}
		STATICTEXT{}
		SEPARATOR AOV_PAGE{SCALE_H;}
		LINK DL_AOV_GROUP{SCALE_H;}
	}
	INCLUDE Massign;
}