CONTAINER dl_standard
{
	NAME dl_standard;
	
	INCLUDE Mpreview;
	INCLUDE Mbase;
	SCALE_H;
	
	GROUP Obaselist
	{
		BOOL STANDARD_MATERIAL_PAGE { HIDDEN; PAGE; PARENTMSG STANDARD_MATERIAL;}
	}
	
	GROUP STANDARD_MATERIAL
	{
		SEPARATOR {LINE;}
		GROUP
		{
			COLUMNS 2;
			SEPARATOR BASE_LAYER{SCALE_H;}
			STATICTEXT{}
		
			REAL BASE_VALUE{SCALE_H; MIN 0; MAX 1; MINSLIDER 0; MAXSLIDER 1; STEP 0.001; CUSTOMGUI REALSLIDER;}
			SHADERLINK BASE_VALUE_SHADER{ANIM ON; SCALE_H; HIDDEN;}
			SHADERLINK BASE_VALUE_SHADER_TEMP{ANIM ON; SCALE_H; HIDDEN;}
			POPUP POPUP_BASE_VALUE{SCALE_V;}
			
			COLOR BASE_COLOR{SCALE_H;}
			SHADERLINK BASE_COLOR_SHADER{ANIM ON; HIDDEN;}
			SHADERLINK BASE_COLOR_SHADER_TEMP{ANIM ON; HIDDEN;}
			POPUP POPUP_BASE_COLOR{SCALE_V;}

			REAL BASE_ROUGHNESS{SCALE_H; MIN 0; MAX 1; MINSLIDER 0; MAXSLIDER 1; STEP 0.001; CUSTOMGUI REALSLIDER;}
			SHADERLINK BASE_ROUGHNESS_SHADER{ANIM ON; HIDDEN;}
			SHADERLINK BASE_ROUGHNESS_SHADER_TEMP{ANIM ON; HIDDEN;}
			POPUP POPUP_BASE_ROUGHNESS{SCALE_V;}


			STATICTEXT{SCALE_H;}
			STATICTEXT{}
			SEPARATOR SPECULAR_LAYER{SCALE_H;}
			STATICTEXT{}

			REAL SPECULAR_VALUE{SCALE_H; MIN 0; MAX 1; MINSLIDER 0; MAXSLIDER 1; STEP 0.001; CUSTOMGUI REALSLIDER;}
			SHADERLINK SPECULAR_VALUE_SHADER{ANIM ON; HIDDEN;}
			SHADERLINK SPECULAR_VALUE_SHADER_TEMP{ANIM ON; HIDDEN;}
			POPUP POPUP_SPECULAR_VALUE{SCALE_V;}	
			
			COLOR SPECULAR_COLOR{SCALE_H;}
			SHADERLINK SPECULAR_COLOR_SHADER{ANIM ON; HIDDEN;}
			SHADERLINK SPECULAR_COLOR_SHADER_TEMP{ANIM ON; HIDDEN;}
			POPUP POPUP_SPECULAR_COLOR{SCALE_V;}
		
			REAL SPECULAR_ROUGHNESS{SCALE_H; MIN 0; MAX 1; MINSLIDER 0; MAXSLIDER 1; STEP 0.001; CUSTOMGUI REALSLIDER;}
			SHADERLINK SPECULAR_ROUGHNESS_SHADER{ANIM OFF; HIDDEN;}
			SHADERLINK SPECULAR_ROUGHNESS_SHADER_TEMP{ANIM OFF; HIDDEN;}
			POPUP POPUP_SPECULAR_ROUGHNESS{SCALE_V;}

			REAL SPECULAR_METALNESS{SCALE_H; MIN 0; MAX 1; MINSLIDER 0; MAXSLIDER 1; STEP 0.001; CUSTOMGUI REALSLIDER;}
			SHADERLINK SPECULAR_METALNESS_SHADER{ANIM OFF; HIDDEN;}
			SHADERLINK SPECULAR_METALNESS_SHADER_TEMP{ANIM OFF; HIDDEN;}
			POPUP POPUP_SPECULAR_METALNESS{SCALE_V;}
		
			REAL SPECULAR_IOR{SCALE_H; MIN 0; MINSLIDER 0; MAXSLIDER 5; STEP 0.1; CUSTOMGUI REALSLIDER;}
			SHADERLINK SPECULAR_IOR_SHADER{ANIM OFF; HIDDEN;}	
			SHADERLINK SPECULAR_IOR_SHADER_TEMP{ANIM OFF; HIDDEN;}	
			POPUP POPUP_SPECULAR_IOR{SCALE_V;}

			REAL SPECULAR_ANISOTROPY{SCALE_H; MIN 0; MAX 1; MINSLIDER 0; MAXSLIDER 1; STEP 0.001; CUSTOMGUI REALSLIDER;}
			SHADERLINK SPECULAR_ANISOTROPY_SHADER{ANIM OFF; HIDDEN;}
			SHADERLINK SPECULAR_ANISOTROPY_SHADER_TEMP{ANIM OFF; HIDDEN;}
			POPUP POPUP_SPECULAR_ANISOTROPY{SCALE_V;}
		
			COLOR SPECULAR_ROTATION{SCALE_H;}
			SHADERLINK SPECULAR_ROTATION_SHADER{ANIM OFF; HIDDEN;}
			SHADERLINK SPECULAR_ROTATION_SHADER_TEMP{ANIM OFF; HIDDEN;}
			POPUP POPUP_SPECULAR_ROTATION{SCALE_V;}
		
			STATICTEXT{SCALE_H;}
			STATICTEXT{}
			SEPARATOR COATING_LAYER{SCALE_H;}
			STATICTEXT{}
				
			REAL COAT_VALUE{SCALE_H; MIN 0; MAX 1; MINSLIDER 0; MAXSLIDER 1; STEP 0.01; CUSTOMGUI REALSLIDER;}
			SHADERLINK COAT_VALUE_SHADER{ANIM OFF; HIDDEN;SCALE_H;}
			SHADERLINK COAT_VALUE_SHADER_TEMP{ANIM OFF; HIDDEN;SCALE_H;}
			POPUP POPUP_COAT_VALUE{SCALE_V;}

			COLOR COAT_COLOR{SCALE_H;}
			SHADERLINK COAT_COLOR_SHADER{ANIM OFF; HIDDEN;SCALE_H;}
			SHADERLINK COAT_COLOR_SHADER_TEMP{ANIM OFF; HIDDEN;SCALE_H;}
			POPUP POPUP_COAT_COLOR{SCALE_V;}
			
			REAL COAT_ROUGHNESS{SCALE_H;MIN 0; MAX 1; MINSLIDER 0; MAXSLIDER 1; STEP 0.01; CUSTOMGUI REALSLIDER;}
			SHADERLINK COAT_ROUGHNESS_SHADER{ANIM OFF;HIDDEN;SCALE_H;}
			SHADERLINK COAT_ROUGHNESS_SHADER_TEMP{ANIM OFF;HIDDEN;SCALE_H;}
			POPUP POPUP_COAT_ROUGHNESS{SCALE_V;}

			REAL COAT_IOR{SCALE_H;MIN 0; MINSLIDER 0; MAXSLIDER 5; STEP 0.1; CUSTOMGUI REALSLIDER;}
			SHADERLINK COAT_IOR_SHADER{ANIM OFF;HIDDEN;SCALE_H;}
			SHADERLINK COAT_IOR_SHADER_TEMP{ANIM OFF;HIDDEN;SCALE_H;}
			POPUP POPUP_COAT_IOR{SCALE_V;}
	
			REAL COAT_AFFECT_COLOR{SCALE_H;MIN 0; MAX 1; MINSLIDER 0; MAXSLIDER 1; STEP 0.01; CUSTOMGUI REALSLIDER;}
			SHADERLINK COAT_AFFECT_COLOR_SHADER{ANIM OFF;HIDDEN;SCALE_H;}
			SHADERLINK COAT_AFFECT_COLOR_SHADER_TEMP{ANIM OFF;HIDDEN;SCALE_H;}
			POPUP POPUP_COAT_AFFECT_COLOR{SCALE_V;}

			REAL COAT_AFFECT_ROUGHNESS{SCALE_H;MIN 0; MAX 1; MINSLIDER 0; MAXSLIDER 1; STEP 0.01; CUSTOMGUI REALSLIDER;}
			SHADERLINK COAT_AFFECT_ROUGHNESS_SHADER{ANIM OFF;HIDDEN;SCALE_H;}
			SHADERLINK COAT_AFFECT_ROUGHNESS_SHADER_TEMP{ANIM OFF;HIDDEN;SCALE_H;}
			POPUP POPUP_COAT_AFFECT_ROUGHNESS{SCALE_V;}

			STATICTEXT{SCALE_H;}
			STATICTEXT{}
			SEPARATOR THIN_FILM_LAYER{SCALE_H;}
			STATICTEXT{}
	
			REAL THIN_FILM_THICKNESS{SCALE_H;MIN 0; MINSLIDER 0; MAXSLIDER 1; STEP 0.01; CUSTOMGUI REALSLIDER;}
			SHADERLINK THIN_FILM_THICKNESS_SHADER{ANIM OFF;HIDDEN;SCALE_H;}
			SHADERLINK THIN_FILM_THICKNESS_SHADER_TEMP{ANIM OFF;HIDDEN;SCALE_H;}
			POPUP POPUP_THIN_FILM_THICKNESS{SCALE_V;}
	
			REAL THIN_FILM_IOR{SCALE_H;MIN 0; MINSLIDER 0; MAXSLIDER 5; STEP 0.1; CUSTOMGUI REALSLIDER;}
			SHADERLINK THIN_FILM_IOR_SHADER{ANIM OFF;HIDDEN;SCALE_H;}
			SHADERLINK THIN_FILM_IOR_SHADER_TEMP{ANIM OFF;HIDDEN;SCALE_H;}
			POPUP POPUP_THIN_FILM_IOR{SCALE_V;}		

			STATICTEXT{SCALE_H;}
			STATICTEXT{}
			SEPARATOR SUBSURFACE_LAYER{SCALE_H;}
			STATICTEXT{}

			REAL SUBSURFACE_VALUE{SCALE_H; MIN 0; MAX 1; MINSLIDER 0; MAXSLIDER 1; STEP 0.01; CUSTOMGUI REALSLIDER;}
			SHADERLINK SUBSURFACE_VALUE_SHADER{ANIM OFF; HIDDEN;SCALE_H;}
			SHADERLINK SUBSURFACE_VALUE_SHADER_TEMP{ANIM OFF; HIDDEN;SCALE_H;}
			POPUP POPUP_SUBSURFACE_VALUE{SCALE_V;}

			COLOR SUBSURFACE_COLOR{SCALE_H;}
			SHADERLINK SUBSURFACE_COLOR_SHADER{ANIM OFF; HIDDEN;SCALE_H;}
			SHADERLINK SUBSURFACE_COLOR_SHADER_TEMP{ANIM OFF; HIDDEN;SCALE_H;}
			POPUP POPUP_SUBSURFACE_COLOR{SCALE_V;}	

			COLOR SUBSURFACE_RADIUS{SCALE_H;}
			SHADERLINK SUBSURFACE_RADIUS_SHADER{ANIM OFF; HIDDEN;SCALE_H;}
			SHADERLINK SUBSURFACE_RADIUS_SHADER_TEMP{ANIM OFF; HIDDEN;SCALE_H;}
			POPUP POPUP_SUBSURFACE_RADIUS{SCALE_V;}	

			REAL SUBSURFACE_SCALE{SCALE_H; MIN 0; MINSLIDER 0; MAXSLIDER 10; STEP 0.1; CUSTOMGUI REALSLIDER;}
			SHADERLINK SUBSURFACE_SCALE_SHADER{ANIM OFF; HIDDEN;SCALE_H;}
			SHADERLINK SUBSURFACE_SCALE_SHADER_TEMP{ANIM OFF; HIDDEN;SCALE_H;}
			POPUP POPUP_SUBSURFACE_SCALE{SCALE_V;}

			REAL SUBSURFACE_ANISOTROPY{SCALE_H; MIN -1; MAX 1; MINSLIDER 0; MAXSLIDER 1; STEP 0.01; CUSTOMGUI REALSLIDER;}
			SHADERLINK SUBSURFACE_ANISOTROPY_SHADER{ANIM OFF; HIDDEN;SCALE_H;}
			SHADERLINK SUBSURFACE_ANISOTROPY_SHADER_TEMP{ANIM OFF; HIDDEN;SCALE_H;}
			POPUP POPUP_SUBSURFACE_ANISOTROPY{SCALE_V;}

			STATICTEXT{SCALE_H;}
			STATICTEXT{}
			SEPARATOR TRANSMISSION_LAYER{SCALE_H;}
			STATICTEXT{}

			REAL TRANSMISSION_VALUE{SCALE_H; MIN 0; MAX 1; MINSLIDER 0; MAXSLIDER 1; STEP 0.01; CUSTOMGUI REALSLIDER;}
			SHADERLINK TRANSMISSION_VALUE_SHADER{ANIM OFF; HIDDEN;SCALE_H;}
			SHADERLINK TRANSMISSION_VALUE_SHADER_TEMP{ANIM OFF; HIDDEN;SCALE_H;}
			POPUP POPUP_TRANSMISSION_VALUE{SCALE_V;}

			COLOR TRANSMISSION_COLOR{SCALE_H;}
			SHADERLINK TRANSMISSION_COLOR_SHADER{ANIM OFF; HIDDEN;SCALE_H;}
			SHADERLINK TRANSMISSION_COLOR_SHADER_TEMP{ANIM OFF; HIDDEN;SCALE_H;}
			POPUP POPUP_TRANSMISSION_COLOR{SCALE_V;}	

			COLOR TRANSMISSION_SCATTER{SCALE_H;}
			SHADERLINK TRANSMISSION_SCATTER_SHADER{ANIM OFF; HIDDEN;SCALE_H;}
			SHADERLINK TRANSMISSION_SCATTER_SHADER_TEMP{ANIM OFF; HIDDEN;SCALE_H;}
			POPUP POPUP_TRANSMISSION_SCATTER{SCALE_V;}	

			REAL TRANSMISSION_DEPTH{SCALE_H; MIN 0; MINSLIDER 0; MAXSLIDER 10; STEP 0.1; CUSTOMGUI REALSLIDER;}
			SHADERLINK TRANSMISSION_DEPTH_SHADER{ANIM OFF; HIDDEN;SCALE_H;}
			SHADERLINK TRANSMISSION_DEPTH_SHADER_TEMP{ANIM OFF; HIDDEN;SCALE_H;}
			POPUP POPUP_TRANSMISSION_DEPTH{SCALE_V;}


			STATICTEXT{SCALE_H;}
			STATICTEXT{}
			SEPARATOR EMISSION_LAYER{SCALE_H;}
			STATICTEXT{}

			REAL EMISSION_VALUE{SCALE_H; MIN 0; MINSLIDER 0; MAXSLIDER 1; STEP 0.01; CUSTOMGUI REALSLIDER;}
			SHADERLINK EMISSION_VALUE_SHADER{ANIM OFF; HIDDEN;SCALE_H;}
			SHADERLINK EMISSION_VALUE_SHADER_TEMP{ANIM OFF; HIDDEN;SCALE_H;}
			POPUP POPUP_EMISSION_VALUE{SCALE_V;}

			COLOR EMISSION_COLOR{SCALE_H;}
			SHADERLINK EMISSION_COLOR_SHADER{ANIM OFF; HIDDEN;SCALE_H;}
			SHADERLINK EMISSION_COLOR_SHADER_TEMP{ANIM OFF; HIDDEN;SCALE_H;}
			POPUP POPUP_EMISSION_COLOR{SCALE_V;}	

			STATICTEXT{SCALE_H;}
			STATICTEXT{}
			SEPARATOR GEOMETRY_LAYER{SCALE_H;}
			STATICTEXT{}

			COLOR GEOMETRY_OPACITY{SCALE_H;}
			SHADERLINK GEOMETRY_OPACITY_SHADER{ANIM OFF; HIDDEN;SCALE_H;}
			SHADERLINK GEOMETRY_OPACITY_SHADER_TEMP{ANIM OFF; HIDDEN;SCALE_H;}
			POPUP POPUP_GEOMETRY_OPACITY{SCALE_V;}	

			SHADERLINK GEOMETRY_BASE_NORMAL{ANIM OFF; SCALE_H;}
			SEPARATOR{}
			SHADERLINK GEOMETRY_COAT_NORMAL{ANIM OFF; SCALE_H;}
			SEPARATOR{}
			BOOL GEOMETRY_THIN_WALLED{ANIM OFF;}
			SEPARATOR{}
		}
	}
	INCLUDE Massign;
}
