CONTAINER dl_toon	
{
	NAME dl_toon;
	
	INCLUDE Mpreview;
	INCLUDE Mbase;
	
	GROUP Obaselist
	{
		BOOL TOON_PAGE { HIDDEN; PAGE; PARENTMSG TOON_GROUP; }
	}
	
	GROUP TOON_GROUP
	{
		SEPARATOR {LINE;}

		GROUP
		{
			COLUMNS 2;
			SEPARATOR TOON_COLOR_GROUP{SCALE_H;}
			STATICTEXT{}
			
			GRADIENT TOON_COLOR {COLOR;SCALE_H;}
			STATICTEXT{}
			
			LINK TOON_PHYSICAL_LAYER{SCALE_H;}
			STATICTEXT{}
			
			COLOR TOON_TINT{SCALE_H;}
			SHADERLINK TOON_TINT_SHADER{SCALE_H;ANIM OFF;HIDDEN;}
			SHADERLINK TOON_TINT_SHADER_TEMP{ANIM OFF;HIDDEN;}
			POPUP POPUP_TOON_TINT{SCALE_V;}
			
			REAL TOON_WEIGHT{SCALE_H;MIN 0; MINSLIDER 0; MAXSLIDER 1; STEP 0.001; CUSTOMGUI REALSLIDER;}
			SHADERLINK TOON_WEIGHT_SHADER{SCALE_H;ANIM OFF;HIDDEN;}
			SHADERLINK TOON_WEIGHT_SHADER_TEMP{ANIM OFF;HIDDEN;}
			POPUP POPUP_TOON_WEIGHT{SCALE_V;}
			
			REAL TOON_OPACITY{SCALE_H;MIN 0; MAX 1; MINSLIDER 0; MAXSLIDER 1; STEP 0.001; CUSTOMGUI REALSLIDER;}
			SHADERLINK TOON_OPACITY_SHADER{SCALE_H;ANIM OFF;HIDDEN;}		
			SHADERLINK TOON_OPACITY_SHADER_TEMP{ANIM OFF;HIDDEN;}		
			POPUP POPUP_TOON_OPACITY{SCALE_V;}
			
			STATICTEXT{}
			STATICTEXT{}
			SEPARATOR SPECULAR{}
			STATICTEXT{}
		
			COLOR SPECULAR_COLOR{SCALE_H;}
			SHADERLINK SPECULAR_COLOR_SHADER{SCALE_H;ANIM OFF;HIDDEN;}
			SHADERLINK SPECULAR_COLOR_SHADER_TEMP{ANIM OFF;HIDDEN;}
			POPUP POPUP_SPECULAR_COLOR{SCALE_V;}

			REAL SPECULAR_WEIGHT{SCALE_H;MIN 0; MINSLIDER 0; MAXSLIDER 100; STEP 0.1; CUSTOMGUI REALSLIDER;}
			SHADERLINK SPECULAR_WEIGHT_SHADER{SCALE_H;ANIM OFF;HIDDEN;}
			SHADERLINK SPECULAR_WEIGHT_SHADER_TEMP{ANIM OFF;HIDDEN;}
			POPUP POPUP_SPECULAR_WEIGHT{SCALE_V;}

			REAL SPECULAR_ROUGHNESS{SCALE_H;MIN 0; MAX 1; MINSLIDER 0; MAXSLIDER 1; STEP 0.1; CUSTOMGUI REALSLIDER;}
			SHADERLINK SPECULAR_ROUGHNESS_SHADER{SCALE_H;ANIM OFF;HIDDEN;}
			SHADERLINK SPECULAR_ROUGHNESS_SHADER_TEMP{ANIM OFF;HIDDEN;}
			POPUP POPUP_SPECULAR_ROUGHNESS{SCALE_V;}
		
			STATICTEXT{SCALE_H;}
			STATICTEXT{}
			SEPARATOR OUTLINES{SCALE_H;}
			STATICTEXT{}
			
			REAL OUTLINES_FADE{SCALE_H;}
			SHADERLINK OUTLINES_FADE_SHADER{SCALE_H;ANIM OFF;HIDDEN;}
			SHADERLINK OUTLINES_FADE_SHADER_TEMP{ANIM OFF;HIDDEN;}
			POPUP POPUP_OUTLINES_FADE{SCALE_V;}

			STATICTEXT{SCALE_H;}
			STATICTEXT{}
			SEPARATOR FOLDS{SCALE_H;}
			STATICTEXT{}

			BOOL FOLDS_ENABLE{SCALE_H;}
			STATICTEXT{}

			COLOR FOLDS_COLOR{SCALE_H;}
			SHADERLINK FOLDS_COLOR_SHADER{SCALE_H;ANIM OFF;HIDDEN;}
			SHADERLINK FOLDS_COLOR_SHADER_TEMP{ANIM OFF;HIDDEN;}
			POPUP POPUP_FOLDS_COLOR{SCALE_V;}
			
			REAL FOLDS_OPACITY{SCALE_H;MIN 0; MAX 1; MINSLIDER 0; MAXSLIDER 1; STEP 0.001; CUSTOMGUI REALSLIDER;}
			SHADERLINK FOLDS_OPACITY_SHADER{SCALE_H;ANIM OFF;HIDDEN;}
			SHADERLINK FOLDS_OPACITY_SHADER_TEMP{ANIM OFF;HIDDEN;}
			POPUP POPUP_FOLDS_OPACITY{SCALE_V;}
			
			REAL FOLDS_WIDTH{SCALE_H;MIN 0; MAX 10; MINSLIDER 0; MAXSLIDER 10; STEP 0.0001; CUSTOMGUI REALSLIDER;}
			SHADERLINK FOLDS_WIDTH_SHADER{SCALE_H;ANIM OFF;HIDDEN;}
			SHADERLINK FOLDS_WIDTH_SHADER_TEMP{ANIM OFF;HIDDEN;}
			POPUP POPUP_FOLDS_WIDTH{SCALE_V;}
			
			REAL FOLDS_SENSITIVITY{SCALE_H;MIN 0; MAX 1; MINSLIDER 0; MAXSLIDER 1; STEP 0.001; CUSTOMGUI REALSLIDER;}
			SHADERLINK FOLDS_SENSITIVITY_SHADER{SCALE_H;ANIM OFF;HIDDEN;}
			SHADERLINK FOLDS_SENSITIVITY_SHADER_TEMP{ANIM OFF;HIDDEN;}
			POPUP POPUP_FOLDS_SENSITIVITY{SCALE_V;}

			BOOL FOLDS_TINT_COLOR{SCALE_H;}
			STATICTEXT{}
			
			STATICTEXT{SCALE_H;}
			STATICTEXT{}
			SEPARATOR SILHOUETTES{SCALE_H;}
			STATICTEXT{}

			BOOL SILHOUETTES_ENABLE{SCALE_H;}
			STATICTEXT{}

			COLOR SILHOUETTES_COLOR{SCALE_H;}
			SHADERLINK SILHOUETTES_COLOR_SHADER{SCALE_H;ANIM OFF;HIDDEN;}
			SHADERLINK SILHOUETTES_COLOR_SHADER_TEMP{ANIM OFF;HIDDEN;}
			POPUP POPUP_SILHOUETTES_COLOR{SCALE_V;}
			
			REAL SILHOUETTES_OPACITY{SCALE_H;MIN 0; MAX 1; MINSLIDER 0; MAXSLIDER 1; STEP 0.001; CUSTOMGUI REALSLIDER;}
			SHADERLINK SILHOUETTES_OPACITY_SHADER{SCALE_H;ANIM OFF;HIDDEN;}
			SHADERLINK SILHOUETTES_OPACITY_SHADER_TEMP{ANIM OFF;HIDDEN;}
			POPUP POPUP_SILHOUETTES_OPACITY{SCALE_V;}
			
			REAL SILHOUETTES_WIDTH{SCALE_H;MIN 0; MAX 10; MINSLIDER 0; MAXSLIDER 10; STEP 0.0001; CUSTOMGUI REALSLIDER;}
			SHADERLINK SILHOUETTES_WIDTH_SHADER{SCALE_H;ANIM OFF;HIDDEN;}
			SHADERLINK SILHOUETTES_WIDTH_SHADER_TEMP{ANIM OFF;HIDDEN;}
			POPUP POPUP_SILHOUETTES_WIDTH{SCALE_V;}
			
			REAL SILHOUETTES_SENSITIVITY{SCALE_H;MIN 0; MAX 1; MINSLIDER 0; MAXSLIDER 1; STEP 0.001; CUSTOMGUI REALSLIDER;}
			SHADERLINK SILHOUETTES_SENSITIVITY_SHADER{SCALE_H;ANIM OFF;HIDDEN;}
			SHADERLINK SILHOUETTES_SENSITIVITY_SHADER_TEMP{ANIM OFF;HIDDEN;}
			POPUP POPUP_SILHOUETTES_SENSITIVITY{SCALE_V;}

			BOOL SILHOUETTES_TINT_COLOR{SCALE_H;}
			STATICTEXT{}

			STATICTEXT{SCALE_H;}
			STATICTEXT{}
			SEPARATOR CREASES{SCALE_H;}
			STATICTEXT{}

			BOOL CREASES_ENABLE{SCALE_H;}
			STATICTEXT{}

			COLOR CREASES_COLOR{SCALE_H;}
			SHADERLINK CREASES_COLOR_SHADER{SCALE_H;ANIM OFF;HIDDEN;}
			SHADERLINK CREASES_COLOR_SHADER_TEMP{ANIM OFF;HIDDEN;}
			POPUP POPUP_CREASES_COLOR{SCALE_V;}
			
			REAL CREASES_OPACITY{SCALE_H;MIN 0; MAX 1; MINSLIDER 0; MAXSLIDER 1; STEP 0.001; CUSTOMGUI REALSLIDER;}
			SHADERLINK CREASES_OPACITY_SHADER{SCALE_H;ANIM OFF;HIDDEN;}
			SHADERLINK CREASES_OPACITY_SHADER_TEMP{ANIM OFF;HIDDEN;}
			POPUP POPUP_CREASES_OPACITY{SCALE_V;}
			
			REAL CREASES_WIDTH{SCALE_H;MIN 0; MAX 10; MINSLIDER 0; MAXSLIDER 10; STEP 0.0001; CUSTOMGUI REALSLIDER;}
			SHADERLINK CREASES_WIDTH_SHADER{SCALE_H;ANIM OFF;HIDDEN;}
			SHADERLINK CREASES_WIDTH_SHADER_TEMP{ANIM OFF;HIDDEN;}
			POPUP POPUP_CREASES_WIDTH{SCALE_V;}
			
			BOOL CREASES_TINT_COLOR{SCALE_H;}
			STATICTEXT{}

			STATICTEXT{SCALE_H;}
			STATICTEXT{}
			SEPARATOR OBJECTS{SCALE_H;}
			STATICTEXT{}

			BOOL OBJECTS_ENABLE{SCALE_H;}
			STATICTEXT{}

			COLOR OBJECTS_COLOR{SCALE_H;}
			SHADERLINK OBJECTS_COLOR_SHADER{SCALE_H;ANIM OFF;HIDDEN;}
			SHADERLINK OBJECTS_COLOR_SHADER_TEMP{ANIM OFF;HIDDEN;}
			POPUP POPUP_OBJECTS_COLOR{SCALE_V;}

			REAL OBJECTS_OPACITY{SCALE_H;MIN 0; MAX 1; MINSLIDER 0; MAXSLIDER 1; STEP 0.001; CUSTOMGUI REALSLIDER;}
			SHADERLINK OBJECTS_OPACITY_SHADER{SCALE_H;ANIM OFF;HIDDEN;}
			SHADERLINK OBJECTS_OPACITY_SHADER_TEMP{ANIM OFF;HIDDEN;}
			POPUP POPUP_OBJECTS_OPACITY{SCALE_V;}

			REAL OBJECTS_WIDTH{SCALE_H;MIN 0; MAX 10; MINSLIDER 0; MAXSLIDER 10; STEP 0.0001; CUSTOMGUI REALSLIDER;}
			SHADERLINK OBJECTS_WIDTH_SHADER{SCALE_H;ANIM OFF;HIDDEN;}
			SHADERLINK OBJECTS_WIDTH_SHADER_TEMP{ANIM OFF;HIDDEN;}
			POPUP POPUP_OBJECTS_WIDTH{SCALE_V;}

			BOOL OBJECTS_TINT_COLOR{SCALE_H;}
			STATICTEXT{}

			STATICTEXT{SCALE_H;}
			STATICTEXT{}
			SEPARATOR TEXTURE{SCALE_H;}
			STATICTEXT{}

			BOOL TEXTURE_ENABLE{SCALE_H;}
			STATICTEXT{}

			COLOR TEXTURE_FILE_ATTR{SCALE_H;}
			SHADERLINK TEXTURE_FILE_SHADER{SCALE_H;ANIM OFF;HIDDEN;}
			SHADERLINK TEXTURE_FILE_SHADER_TEMP{ANIM OFF;HIDDEN;}
			POPUP POPUP_TEXTURE_FILE{SCALE_V;}

			COLOR TEXTURE_COLOR_ATTR{SCALE_H;}
			SHADERLINK TEXTURE_COLOR_SHADER{SCALE_H;ANIM OFF;HIDDEN;}
			SHADERLINK TEXTURE_COLOR_SHADER_TEMP{ANIM OFF;HIDDEN;}
			POPUP POPUP_TEXTURE_COLOR{SCALE_V;}

			REAL TEXTURE_OPACITY{SCALE_H;MIN 0; MAX 1; MINSLIDER 0; MAXSLIDER 1; STEP 0.001; CUSTOMGUI REALSLIDER;}
			SHADERLINK TEXTURE_OPACITY_SHADER{SCALE_H;ANIM OFF;HIDDEN;}
			SHADERLINK TEXTURE_OPACITY_SHADER_TEMP{ANIM OFF;HIDDEN;}
			POPUP POPUP_TEXTURE_OPACITY{SCALE_V;}

			REAL TEXTURE_WIDTH_ATTR{SCALE_H;MIN 0; MAX 10; MINSLIDER 0; MAXSLIDER 10; STEP 0.0001; CUSTOMGUI REALSLIDER;}
			SHADERLINK TEXTURE_WIDTH_SHADER{SCALE_H;ANIM OFF;HIDDEN;}
			SHADERLINK TEXTURE_WIDTH_SHADER_TEMP{ANIM OFF;HIDDEN;}
			POPUP POPUP_TEXTURE_WIDTH{SCALE_V;}

			REAL TEXTURE_SENSITIVITY{SCALE_H;MIN 0; MAX 3; MINSLIDER 0; MAXSLIDER 3; STEP 0.0001; CUSTOMGUI REALSLIDER;}
			SHADERLINK TEXTURE_SENSITIVITY_SHADER{SCALE_H;ANIM OFF;HIDDEN;}
			SHADERLINK TEXTURE_SENSITIVITY_SHADER_TEMP{ANIM OFF;HIDDEN;}
			POPUP POPUP_TEXTURE_SENSITIVITY{SCALE_V;}

			BOOL TEXTURE_TINT_COLOR{SCALE_H;}
			STATICTEXT{}

			STATICTEXT{SCALE_H;}
			STATICTEXT{}
			SEPARATOR BUMP{SCALE_H;}
			STATICTEXT{}

			LONG BUMP_TYPE
			{
				CYCLE
				{
					BUMP_MAP;
					NORMAL_MAP_DIRECTX;
					NORMAL_MAP_OPENGL;
					DISPLACEMENT_0;
					DISPLACEMENT_5;
				}
			}
			SEPARATOR{}
			
			SHADERLINK BUMP_VALUE{ANIM OFF;}
			SEPARATOR{}

			SEPARATOR { LINE; }
			SEPARATOR{}
			
			REAL BUMP_INTENSITY{MINSLIDER 0; MAXSLIDER 10; STEP 0.1; CUSTOMGUI REALSLIDER;}
			SEPARATOR{}
			
		}
		STATICTEXT{}
		SEPARATOR AOV_PAGE{SCALE_H;}
		LINK DL_AOV_GROUP{SCALE_H;}
	}
	INCLUDE Massign;
}