CONTAINER Odirectionallight
{
	NAME Odirectionallight;
	INCLUDE Obase;

	GROUP DIRECTIONAL_LIGHT
	{
		DEFAULT 1;
		SEPARATOR{LINE;}
		
		GROUP
		{
			COLUMNS 2;

			COLOR DIRECTIONAL_LIGHT_COLOR{}
			SHADERLINK DIRECTIONAL_LIGHT_COLOR_SHADER{ANIM OFF;HIDDEN;}
			SHADERLINK DIRECTIONAL_LIGHT_COLOR_SHADER_TEMP{ANIM OFF;HIDDEN;}
			POPUP POPUP_DIRECTIONAL_LIGHT_COLOR{SCALE_V;}
			
			REAL DIRECTIONAL_LIGHT_INTENSITY {SCALE_H; MIN 0; MINSLIDER 0; MAXSLIDER 10; STEP 0.01; CUSTOMGUI REALSLIDER;}
			SEPARATOR{}
			//SHADERLINK DIRECTIONAL_LIGHT_INTENSITY_SHADER {ANIM OFF;HIDDEN;}
			//SHADERLINK DIRECTIONAL_LIGHT_INTENSITY_SHADER_TEMP {ANIM OFF;HIDDEN;}
			//POPUP POPUP_DIRECTIONAL_LIGHT_INTENSITY{SCALE_V;}
			
			REAL DIRECTIONAL_LIGHT_EXPOSURE {MINSLIDER -5.0; MAXSLIDER 5.0; STEP 0.01; CUSTOMGUI REALSLIDER;}
			SEPARATOR{}
			
			REAL DIRECTIONAL_LIGHT_ANGULAR_DIAMETER {MIN 0; MINSLIDER 0; MAXSLIDER 360; MAX 360; CUSTOMGUI REALSLIDER;}
			SEPARATOR{}
			
		}
			
		GROUP 
		{
			COLUMNS 2;
			STATICTEXT{}
			STATICTEXT{}
			SEPARATOR DIRECTIONAL_LIGHT_CONTRIBUTION{}
			STATICTEXT{}

			
			REAL DIRECTIONAL_LIGHT_DIFFUSE {MIN 0; MINSLIDER 0; MAXSLIDER 10; MAX 100; STEP 0.01; CUSTOMGUI REALSLIDER;}
			SEPARATOR{}
			
			REAL DIRECTIONAL_LIGHT_SPECULAR {MIN 0; MINSLIDER 0; MAXSLIDER 10; MAX 100; STEP 0.01; CUSTOMGUI REALSLIDER;}
			SEPARATOR{}
			
			REAL DIRECTIONAL_LIGHT_HAIR {MIN 0; MINSLIDER 0; MAXSLIDER 10; MAX 100; STEP 0.01; CUSTOMGUI REALSLIDER;}
			SEPARATOR{}
			
			REAL DIRECTIONAL_LIGHT_VOLUME {MIN 0; MINSLIDER 0; MAXSLIDER 10; MAX 100; STEP 0.01; CUSTOMGUI REALSLIDER;}
			SEPARATOR{}
		}
		
	}
}
