CONTAINER Ospotlight
{
	NAME Ospotlight;
	INCLUDE Obase;

	GROUP SPOT_LIGHT
	{
		DEFAULT 1;
		SEPARATOR{LINE;}
		GROUP
		{
			COLUMNS 2;
			SEPARATOR SPOT_LIGHT_ATTRIBUTES{}
			STATICTEXT{}
			
			COLOR SPOTLIGHT_COLOR{SCALE_H;}
			SHADERLINK SPOTLIGHT_COLOR_SHADER{HIDDEN;}
			SHADERLINK SPOTLIGHT_COLOR_SHADER_TEMP{HIDDEN;}
			POPUP POPUP_SPOTLIGHT_COLOR{SCALE_V;}
			
			REAL SPOTLIGHT_INTENSITY {MIN 0; MINSLIDER 0; MAXSLIDER 10; STEP 0.01; CUSTOMGUI REALSLIDER;}
			SEPARATOR{}
			//SHADERLINK SPOTLIGHT_INTENSITY_SHADER {HIDDEN;}
			//SHADERLINK SPOTLIGHT_INTENSITY_SHADER_TEMP {HIDDEN;}
			//POPUP POPUP_SPOTLIGHT_INTENSITY{SCALE_V;}
			
			REAL SPOTLIGHT_EXPOSURE {MINSLIDER -5.0; MAXSLIDER 5.0; STEP 0.01; CUSTOMGUI REALSLIDER;}
			SEPARATOR{}
			
			REAL SPOTLIGHT_SPREAD {MIN 0; MAX 1; MINSLIDER 0; MAXSLIDER 1.0; STEP 0.001; CUSTOMGUI REALSLIDER;}
			SEPARATOR{}
			
			REAL SPOTLIGHT_RADIUS {MINSLIDER 0; MIN 0; MAXSLIDER 5.0; STEP 0.01; CUSTOMGUI REALSLIDER;}
			SEPARATOR{}
			
			REAL SPOTLIGHT_CONE_ANGLE {MIN 0.006; MINSLIDER 0.006; MAX 179.994; MAXSLIDER 179.994; STEP 1.3; CUSTOMGUI REALSLIDER;}
			SEPARATOR{}
			
			REAL SPOTLIGHT_PENUMBRA_ANGLE {MIN -10; MINSLIDER 0; MAX 179.994; MAXSLIDER 179.994; STEP 1.3; CUSTOMGUI REALSLIDER;}
			SEPARATOR{}
			
			REAL SPOTLIGHT_DROPOFF {MIN 0; MINSLIDER 0; MAXSLIDER 200; STEP 1; CUSTOMGUI REALSLIDER;}
			SEPARATOR{}
			
			
			LONG SPOTLIGHT_DECAY
			{
				CYCLE
				{
					SPOTLIGHT_DECAY_NODECAY;
					SPOTLIGHT_DECAY_LINEAR;
					SPOTLIGHT_DECAY_QUADRATIC;
					SPOTLIGHT_DECAY_CUBIC;
				}
			}
			SEPARATOR{}		
		}
		
		GROUP 
		{
			COLUMNS 2;
			STATICTEXT{}
			STATICTEXT{}
			SEPARATOR SPOTLIGHT_BARNDOORS{}
			STATICTEXT{}
			
			BOOL SPOTLIGHT_BARNDOORS_USE {SCALE_H;}
			SEPARATOR{}
			
			REAL SPOTLIGHT_BARNDOORS_LEFT {MIN 0; MINSLIDER 0; MAXSLIDER 180; STEP 1; CUSTOMGUI REALSLIDER;}
			STATICTEXT{}

			REAL SPOTLIGHT_BARNDOORS_RIGHT {MIN 0; MINSLIDER 0; MAXSLIDER 180; STEP 1; CUSTOMGUI REALSLIDER;}
			STATICTEXT{}
			
			REAL SPOTLIGHT_BARNDOORS_TOP {MIN 0; MINSLIDER 0; MAXSLIDER 180; STEP 1; CUSTOMGUI REALSLIDER;}
			STATICTEXT{}
			
			REAL SPOTLIGHT_BARNDOORS_BOTTOM {MIN 0; MINSLIDER 0; MAXSLIDER 180; STEP 1; CUSTOMGUI REALSLIDER;}
			STATICTEXT{}
		}
		
		GROUP 
		{
			COLUMNS 2;
			STATICTEXT{}
			STATICTEXT{}
			SEPARATOR SPOTLIGHT_CONTRIBUTION{}
			STATICTEXT{}
			
			REAL SPOTLIGHT_DIFFUSE {MIN 0; MINSLIDER 0; MAXSLIDER 10; MAX 100; STEP 0.01; CUSTOMGUI REALSLIDER;}
			SEPARATOR{}
			
			REAL SPOTLIGHT_SPECULAR {MIN 0; MINSLIDER 0; MAXSLIDER 10; MAX 100; STEP 0.01; CUSTOMGUI REALSLIDER;}
			SEPARATOR{}
			
			REAL SPOTLIGHT_HAIR {MIN 0; MINSLIDER 0; MAXSLIDER 10; MAX 100; STEP 0.01; CUSTOMGUI REALSLIDER;}
			SEPARATOR{}
			
			REAL SPOTLIGHT_VOLUME {MIN 0; MINSLIDER 0; MAXSLIDER 10; MAX 100; STEP 0.01; CUSTOMGUI REALSLIDER;}
			SEPARATOR{}
		}
		
		GROUP
		{
			STATICTEXT{}
			SEPARATOR SPOTLIGHT_FILTERS{}
			SEPARATOR{}
			SCALE_H;
			LIGHTFILTERSTCUSTOMTYPE DL_CUSTOM_SPOTLIGHT_FILTERS
			{
				CUSTOMGUI LIGHTFILTERSCUSTOMGUI;
			}
			
		}
	}
}
